module awesomeProject

go 1.22.0

require (
	github.com/andybalholm/brotli v1.1.0 // indirect
	github.com/gofiber/fiber/v3 v3.0.0-20240219143027-d123008fccc3 // indirect
	github.com/gofiber/utils/v2 v2.0.0-beta.3 // indirect
	github.com/google/uuid v1.6.0 // indirect
	github.com/klauspost/compress v1.17.6 // indirect
	github.com/mattn/go-colorable v0.1.13 // indirect
	github.com/mattn/go-isatty v0.0.20 // indirect
	github.com/valyala/bytebufferpool v1.0.0 // indirect
	github.com/valyala/fasthttp v1.52.0 // indirect
	github.com/valyala/tcplisten v1.0.0 // indirect
	golang.org/x/sys v0.17.0 // indirect
)
